<?xml version="1.0" encoding="UTF-8" standalone="no"?>
<!-- Created with Inkscape (http://www.inkscape.org/) -->

<svg
   xmlns:dc="http://purl.org/dc/elements/1.1/"
   xmlns:cc="http://creativecommons.org/ns#"
   xmlns:rdf="http://www.w3.org/1999/02/22-rdf-syntax-ns#"
   xmlns:svg="http://www.w3.org/2000/svg"
   xmlns="http://www.w3.org/2000/svg"
   xmlns:sodipodi="http://sodipodi.sourceforge.net/DTD/sodipodi-0.dtd"
   xmlns:inkscape="http://www.inkscape.org/namespaces/inkscape"
   width="70.128662mm"
   height="33.359459mm"
   viewBox="0 0 248.48739 118.20281"
   id="svg2"
   version="1.1"
   inkscape:version="0.91 r13725"
   sodipodi:docname="Battery-Stack.svg">
  <defs
     id="defs4" />
  <sodipodi:namedview
     id="base"
     pagecolor="#ffffff"
     bordercolor="#666666"
     borderopacity="1.0"
     inkscape:pageopacity="0.0"
     inkscape:pageshadow="2"
     inkscape:zoom="1.4142136"
     inkscape:cx="133.78713"
     inkscape:cy="27.327999"
     inkscape:document-units="px"
     inkscape:current-layer="layer1"
     showgrid="false"
     fit-margin-top="0"
     fit-margin-left="0"
     fit-margin-right="0"
     fit-margin-bottom="0"
     inkscape:window-width="1366"
     inkscape:window-height="703"
     inkscape:window-x="0"
     inkscape:window-y="0"
     inkscape:window-maximized="1" />
  <metadata
     id="metadata7">
    <rdf:RDF>
      <cc:Work
         rdf:about="">
        <dc:format>image/svg+xml</dc:format>
        <dc:type
           rdf:resource="http://purl.org/dc/dcmitype/StillImage" />
        <dc:title></dc:title>
      </cc:Work>
    </rdf:RDF>
  </metadata>
  <g
     inkscape:label="Layer 1"
     inkscape:groupmode="layer"
     id="layer1"
     transform="translate(-180.51933,-249.30999)">
    <flowRoot
       xml:space="preserve"
       id="flowRoot4243"
       style="font-style:normal;font-weight:normal;font-size:7.5px;line-height:125%;font-family:sans-serif;letter-spacing:0px;word-spacing:0px;fill:#000000;fill-opacity:1;stroke:none;stroke-width:1px;stroke-linecap:butt;stroke-linejoin:miter;stroke-opacity:1"><flowRegion
         id="flowRegion4245"><rect
           id="rect4247"
           width="7.8665628"
           height="7.7781744"
           x="157.86159"
           y="323.68866" /></flowRegion><flowPara
         id="flowPara4249">+=-==s</flowPara></flowRoot>    <flowRoot
       xml:space="preserve"
       id="flowRoot4271"
       style="font-style:normal;font-weight:normal;font-size:12.5px;line-height:125%;font-family:sans-serif;letter-spacing:0px;word-spacing:0px;fill:#000000;fill-opacity:1;stroke:none;stroke-width:1px;stroke-linecap:butt;stroke-linejoin:miter;stroke-opacity:1"><flowRegion
         id="flowRegion4273"><rect
           id="rect4275"
           width="27.930717"
           height="34.294678"
           x="129.75409"
           y="318.38538"
           style="font-size:12.5px" /></flowRegion><flowPara
         id="flowPara4277"></flowPara></flowRoot>    <flowRoot
       xml:space="preserve"
       id="flowRoot4279"
       style="font-style:normal;font-weight:normal;font-size:7.5px;line-height:125%;font-family:sans-serif;letter-spacing:0px;word-spacing:0px;fill:#000000;fill-opacity:1;stroke:none;stroke-width:1px;stroke-linecap:butt;stroke-linejoin:miter;stroke-opacity:1"><flowRegion
         id="flowRegion4281"><rect
           id="rect4283"
           width="16.61701"
           height="23.334524"
           x="118.08683"
           y="299.29349" /></flowRegion><flowPara
         id="flowPara4285"></flowPara></flowRoot>    <flowRoot
       xml:space="preserve"
       id="flowRoot4295"
       style="font-style:normal;font-weight:normal;font-size:12.5px;line-height:125%;font-family:sans-serif;letter-spacing:0px;word-spacing:0px;fill:#000000;fill-opacity:1;stroke:none;stroke-width:1px;stroke-linecap:butt;stroke-linejoin:miter;stroke-opacity:1"><flowRegion
         id="flowRegion4297"><rect
           id="rect4299"
           width="21.566757"
           height="32.526913"
           x="131.87541"
           y="321.21381" /></flowRegion><flowPara
         id="flowPara4301"></flowPara></flowRoot>    <g
       id="g4465">
      <path
         id="path4195"
         d="m 206.41341,265.89788 a 25,25 0 0 0 -1.65039,8.91211 25,25 0 0 0 25,25 l 150,0 a 25,25 0 0 0 25,-25 25,25 0 0 0 -1.67187,-8.91211 l -34.41602,0 0,-16.08789 -127.82422,0 0,16.08789 -34.4375,0 z"
         style="opacity:1;fill:none;stroke:#000000"
         inkscape:connector-curvature="0" />
      <path
         id="path4192"
         d="m 206.41341,265.89788 34.4375,0 0,-16.08789 -11.08789,0 a 25,25 0 0 0 -23.34961,16.08789 z"
         style="opacity:1;fill:none;stroke:#000000"
         inkscape:connector-curvature="0" />
      <path
         id="path4138"
         d="m 368.67513,249.80999 0,16.08789 34.41602,0 a 25,25 0 0 0 -23.32813,-16.08789 l -11.08789,0 z"
         style="opacity:1;fill:none;stroke:#000000"
         inkscape:connector-curvature="0" />
      <rect
         y="278.57031"
         x="236.57744"
         height="15.121882"
         width="19.121883"
         id="rect4205"
         style="opacity:1;fill:none;stroke:#000000;stroke-width:0.8781175" />
      <rect
         y="278.63126"
         x="262.63837"
         height="15"
         width="15"
         id="rect4209"
         style="opacity:1;fill:none;stroke:#000000" />
      <rect
         y="278.57031"
         x="284.57745"
         height="15.121882"
         width="19.121883"
         id="rect4205-7"
         style="opacity:1;fill:none;stroke:#000000;stroke-width:0.8781175" />
      <rect
         y="278.63126"
         x="310.6384"
         height="15"
         width="15"
         id="rect4209-5"
         style="opacity:1;fill:none;stroke:#000000" />
      <text
         sodipodi:linespacing="125%"
         id="text4303"
         y="290.50946"
         x="239.55922"
         style="font-style:normal;font-weight:normal;font-size:12.5px;line-height:125%;font-family:sans-serif;letter-spacing:0px;word-spacing:0px;fill:#000000;fill-opacity:1;stroke:none;stroke-width:1px;stroke-linecap:butt;stroke-linejoin:miter;stroke-opacity:1"
         xml:space="preserve"><tspan
           y="290.50946"
           x="239.55922"
           id="tspan4305"
           sodipodi:role="line">+</tspan></text>
      <text
         sodipodi:linespacing="125%"
         id="text4307"
         y="290.50946"
         x="311.80542"
         style="font-style:normal;font-weight:normal;font-size:12.5px;line-height:125%;font-family:sans-serif;letter-spacing:0px;word-spacing:0px;fill:#000000;fill-opacity:1;stroke:none;stroke-width:1px;stroke-linecap:butt;stroke-linejoin:miter;stroke-opacity:1"
         xml:space="preserve"><tspan
           y="290.50946"
           x="311.80542"
           id="tspan4309"
           sodipodi:role="line">C</tspan></text>
      <text
         sodipodi:linespacing="125%"
         id="text4311"
         y="290.86298"
         x="264.6615"
         style="font-style:normal;font-weight:normal;font-size:12.5px;line-height:125%;font-family:sans-serif;letter-spacing:0px;word-spacing:0px;fill:#000000;fill-opacity:1;stroke:none;stroke-width:1px;stroke-linecap:butt;stroke-linejoin:miter;stroke-opacity:1"
         xml:space="preserve"><tspan
           y="290.86298"
           x="264.6615"
           id="tspan4313"
           sodipodi:role="line">T</tspan></text>
      <text
         sodipodi:linespacing="125%"
         id="text4315"
         y="285.20618"
         x="287.64249"
         style="font-style:normal;font-weight:normal;font-size:12.5px;line-height:125%;font-family:sans-serif;letter-spacing:0px;word-spacing:0px;fill:#000000;fill-opacity:1;stroke:none;stroke-width:1px;stroke-linecap:butt;stroke-linejoin:miter;stroke-opacity:1"
         xml:space="preserve"><tspan
           y="285.20618"
           x="287.64249"
           id="tspan4317"
           sodipodi:role="line">_</tspan></text>
    </g>
    <g
       id="g4319-3"
       transform="translate(8.3352931,26.306076)">
      <path
         id="path4195-5"
         d="m 198.07812,290.5918 a 25,25 0 0 0 -1.65039,8.91211 25,25 0 0 0 25,25 l 150,0 a 25,25 0 0 0 25,-25 25,25 0 0 0 -1.67187,-8.91211 l -34.41602,0 0,-16.08789 -127.82422,0 0,16.08789 -34.4375,0 z"
         style="opacity:1;fill:none;stroke:#000000"
         inkscape:connector-curvature="0" />
      <path
         id="path4192-6"
         d="m 198.07812,290.5918 34.4375,0 0,-16.08789 -11.08789,0 a 25,25 0 0 0 -23.34961,16.08789 z"
         style="opacity:1;fill:none;stroke:#000000"
         inkscape:connector-curvature="0" />
      <path
         id="path4138-2"
         d="m 360.33984,274.50391 0,16.08789 34.41602,0 a 25,25 0 0 0 -23.32813,-16.08789 l -11.08789,0 z"
         style="opacity:1;fill:none;stroke:#000000"
         inkscape:connector-curvature="0" />
      <rect
         y="303.26425"
         x="228.24214"
         height="15.121882"
         width="19.121883"
         id="rect4205-9"
         style="opacity:1;fill:none;stroke:#000000;stroke-width:0.8781175" />
      <rect
         y="303.3252"
         x="254.30309"
         height="15"
         width="15"
         id="rect4209-1"
         style="opacity:1;fill:none;stroke:#000000" />
      <rect
         y="303.26425"
         x="276.24216"
         height="15.121882"
         width="19.121883"
         id="rect4205-7-2"
         style="opacity:1;fill:none;stroke:#000000;stroke-width:0.8781175" />
      <rect
         y="303.3252"
         x="302.3031"
         height="15"
         width="15"
         id="rect4209-5-7"
         style="opacity:1;fill:none;stroke:#000000" />
      <text
         sodipodi:linespacing="125%"
         id="text4303-0"
         y="315.2034"
         x="231.22392"
         style="font-style:normal;font-weight:normal;font-size:12.5px;line-height:125%;font-family:sans-serif;letter-spacing:0px;word-spacing:0px;fill:#000000;fill-opacity:1;stroke:none;stroke-width:1px;stroke-linecap:butt;stroke-linejoin:miter;stroke-opacity:1"
         xml:space="preserve"><tspan
           y="315.2034"
           x="231.22392"
           id="tspan4305-9"
           sodipodi:role="line">+</tspan></text>
      <text
         sodipodi:linespacing="125%"
         id="text4307-3"
         y="315.2034"
         x="303.47012"
         style="font-style:normal;font-weight:normal;font-size:12.5px;line-height:125%;font-family:sans-serif;letter-spacing:0px;word-spacing:0px;fill:#000000;fill-opacity:1;stroke:none;stroke-width:1px;stroke-linecap:butt;stroke-linejoin:miter;stroke-opacity:1"
         xml:space="preserve"><tspan
           y="315.2034"
           x="303.47012"
           id="tspan4309-6"
           sodipodi:role="line">C</tspan></text>
      <text
         sodipodi:linespacing="125%"
         id="text4311-0"
         y="315.55692"
         x="256.3262"
         style="font-style:normal;font-weight:normal;font-size:12.5px;line-height:125%;font-family:sans-serif;letter-spacing:0px;word-spacing:0px;fill:#000000;fill-opacity:1;stroke:none;stroke-width:1px;stroke-linecap:butt;stroke-linejoin:miter;stroke-opacity:1"
         xml:space="preserve"><tspan
           y="315.55692"
           x="256.3262"
           id="tspan4313-6"
           sodipodi:role="line">T</tspan></text>
      <text
         sodipodi:linespacing="125%"
         id="text4315-2"
         y="309.90012"
         x="279.30719"
         style="font-style:normal;font-weight:normal;font-size:12.5px;line-height:125%;font-family:sans-serif;letter-spacing:0px;word-spacing:0px;fill:#000000;fill-opacity:1;stroke:none;stroke-width:1px;stroke-linecap:butt;stroke-linejoin:miter;stroke-opacity:1"
         xml:space="preserve"><tspan
           y="309.90012"
           x="279.30719"
           id="tspan4317-6"
           sodipodi:role="line">_</tspan></text>
    </g>
    <rect
       style="opacity:1;fill:#000000;fill-opacity:0;stroke:#000000"
       id="rect4396"
       width="247.48738"
       height="15.202796"
       x="181.01933"
       y="351.81" />
    <flowRoot
       xml:space="preserve"
       id="flowRoot4398"
       style="font-style:normal;font-weight:normal;font-size:12.5px;line-height:125%;font-family:sans-serif;letter-spacing:0px;word-spacing:0px;fill:#000000;fill-opacity:1;stroke:none;stroke-width:1px;stroke-linecap:butt;stroke-linejoin:miter;stroke-opacity:1"><flowRegion
         id="flowRegion4400"><rect
           id="rect4402"
           width="48.08326"
           height="42.779961"
           x="215.66757"
           y="379.55011" /></flowRegion><flowPara
         id="flowPara4404"></flowPara></flowRoot>    <text
       xml:space="preserve"
       style="font-style:normal;font-weight:normal;font-size:17.5px;line-height:125%;font-family:sans-serif;letter-spacing:0px;word-spacing:0px;fill:#000000;fill-opacity:1;stroke:none;stroke-width:1px;stroke-linecap:butt;stroke-linejoin:miter;stroke-opacity:1"
       x="409.26303"
       y="334.76996"
       id="text4406"
       sodipodi:linespacing="125%"><tspan
         sodipodi:role="line"
         id="tspan4408"
         x="409.26303"
         y="334.76996"
         style="font-size:25px">A</tspan></text>
    <text
       xml:space="preserve"
       style="font-style:normal;font-weight:normal;font-size:17.5px;line-height:125%;font-family:sans-serif;letter-spacing:0px;word-spacing:0px;fill:#000000;fill-opacity:1;stroke:none;stroke-width:1px;stroke-linecap:butt;stroke-linejoin:miter;stroke-opacity:1"
       x="406.83383"
       y="283.73334"
       id="text4410"
       sodipodi:linespacing="125%"><tspan
         sodipodi:role="line"
         x="406.83383"
         y="283.73334"
         id="tspan4414"
         style="font-size:25px">B</tspan></text>
    <flowRoot
       xml:space="preserve"
       id="flowRoot4418"
       style="font-style:normal;font-weight:normal;font-size:17.5px;line-height:125%;font-family:sans-serif;letter-spacing:0px;word-spacing:0px;fill:#000000;fill-opacity:1;stroke:none;stroke-width:1px;stroke-linecap:butt;stroke-linejoin:miter;stroke-opacity:1"><flowRegion
         id="flowRegion4420"><rect
           id="rect4422"
           width="45.961941"
           height="22.273863"
           x="230.16325"
           y="381.31787" /></flowRegion><flowPara
         id="flowPara4424"></flowPara></flowRoot>    <text
       xml:space="preserve"
       style="font-style:normal;font-weight:normal;font-size:12.5px;line-height:125%;font-family:sans-serif;letter-spacing:0px;word-spacing:0px;fill:#ff0000;fill-opacity:1;stroke:none;stroke-width:1px;stroke-linecap:butt;stroke-linejoin:miter;stroke-opacity:1"
       x="244.0107"
       y="324.74933"
       id="text4426"
       sodipodi:linespacing="125%"><tspan
         sodipodi:role="line"
         id="tspan4428"
         x="244.0107"
         y="324.74933">p1</tspan></text>
    <text
       xml:space="preserve"
       style="font-style:normal;font-weight:normal;font-size:12.5px;line-height:125%;font-family:sans-serif;letter-spacing:0px;word-spacing:0px;fill:#ff0000;fill-opacity:1;stroke:none;stroke-width:1px;stroke-linecap:butt;stroke-linejoin:miter;stroke-opacity:1"
       x="241.94771"
       y="273.83765"
       id="text4430"
       sodipodi:linespacing="125%"><tspan
         sodipodi:role="line"
         id="tspan4432"
         x="241.94771"
         y="273.83765">p2</tspan></text>
    <text
       xml:space="preserve"
       style="font-style:normal;font-weight:normal;font-size:12.5px;line-height:125%;font-family:sans-serif;letter-spacing:0px;word-spacing:0px;fill:#000000;fill-opacity:1;stroke:none;stroke-width:1px;stroke-linecap:butt;stroke-linejoin:miter;stroke-opacity:1"
       x="290.00876"
       y="324.74933"
       id="text4434"
       sodipodi:linespacing="125%"><tspan
         sodipodi:role="line"
         id="tspan4436"
         x="290.00876"
         y="324.74933">p3</tspan></text>
    <text
       xml:space="preserve"
       style="font-style:normal;font-weight:normal;font-size:12.5px;line-height:125%;font-family:sans-serif;letter-spacing:0px;word-spacing:0px;fill:#000000;fill-opacity:1;stroke:none;stroke-width:1px;stroke-linecap:butt;stroke-linejoin:miter;stroke-opacity:1"
       x="289.55099"
       y="273.83765"
       id="text4438"
       sodipodi:linespacing="125%"><tspan
         sodipodi:role="line"
         id="tspan4440"
         x="289.55099"
         y="273.83765">p4</tspan></text>
    <text
       xml:space="preserve"
       style="font-style:normal;font-weight:normal;font-size:12.5px;line-height:125%;font-family:sans-serif;letter-spacing:0px;word-spacing:0px;fill:#000000;fill-opacity:1;stroke:none;stroke-width:1px;stroke-linecap:butt;stroke-linejoin:miter;stroke-opacity:1"
       x="312.00876"
       y="273.83765"
       id="text4442"
       sodipodi:linespacing="125%"><tspan
         sodipodi:role="line"
         id="tspan4444"
         x="312.00876"
         y="273.83765">p5</tspan></text>
    <text
       xml:space="preserve"
       style="font-style:normal;font-weight:normal;font-size:12.5px;line-height:125%;font-family:sans-serif;letter-spacing:0px;word-spacing:0px;fill:#ffd42a;fill-opacity:1;stroke:none;stroke-width:1px;stroke-linecap:butt;stroke-linejoin:miter;stroke-opacity:1"
       x="263.88666"
       y="273.83765"
       id="text4446"
       sodipodi:linespacing="125%"><tspan
         sodipodi:role="line"
         id="tspan4448"
         x="263.88666"
         y="273.83765">p6</tspan></text>
  </g>
</svg>
